%YAML 1.1
%TAG !u! tag:unity3d.com,2011:
--- !u!1 &2317867727704385145
GameObject:
  m_ObjectHideFlags: 0
  m_CorrespondingSourceObject: {fileID: 0}
  m_PrefabInstance: {fileID: 0}
  m_PrefabAsset: {fileID: 0}
  serializedVersion: 6
  m_Component:
  - component: {fileID: 2317867727704385147}
  - component: {fileID: 2317867727704385144}
  m_Layer: 0
  m_Name: GameData
  m_TagString: Untagged
  m_Icon: {fileID: 0}
  m_NavMeshLayer: 0
  m_StaticEditorFlags: 0
  m_IsActive: 1
--- !u!4 &2317867727704385147
Transform:
  m_ObjectHideFlags: 0
  m_CorrespondingSourceObject: {fileID: 0}
  m_PrefabInstance: {fileID: 0}
  m_PrefabAsset: {fileID: 0}
  m_GameObject: {fileID: 2317867727704385145}
  m_LocalRotation: {x: 0, y: 0, z: 0, w: 1}
  m_LocalPosition: {x: -23.242004, y: 67.264175, z: 20.5697}
  m_LocalScale: {x: 1, y: 1, z: 1}
  m_Children: []
  m_Father: {fileID: 0}
  m_RootOrder: 0
  m_LocalEulerAnglesHint: {x: 0, y: 0, z: 0}
--- !u!114 &2317867727704385144
MonoBehaviour:
  m_ObjectHideFlags: 0
  m_CorrespondingSourceObject: {fileID: 0}
  m_PrefabInstance: {fileID: 0}
  m_PrefabAsset: {fileID: 0}
  m_GameObject: {fileID: 2317867727704385145}
  m_Enabled: 1
  m_EditorHideFlags: 0
  m_Script: {fileID: 11500000, guid: ce2a8625d2333b44e98ac446e5c7d047, type: 3}
  m_Name: 
  m_EditorClassIdentifier: 
  money:
    shortValue: 
    moneyAmount: 2525252525
    periods:
    - 
    - k
    - M
    - B
    - T
    - q
    - Q
    - s
    - S
    - o
    - N
    - d
    - U
    - D
    - Td
    - qd
    - Qd
    - sd
    - Sd
    - Od
    - Nd
    - V
    - Uv
    - Dv
    - Tv
    - qv
    - sv
    - Sv
    - Ov
    - Nv
    - Tg
    - Ut
    - Dt
    - Tt
    - qt
    - Qt
    - st
    - St
    - Ot
    - Nt
  currentDiamonds: 25
  overallMoneyForMinute:
    shortValue: '00 '
    moneyAmount: 200
    periods:
    - 
    - k
    - M
    - B
    - T
    - q
    - Q
    - s
    - S
    - o
    - N
    - d
    - U
    - D
    - Td
    - qd
    - Qd
    - sd
    - Sd
    - Od
    - Nd
    - V
    - Uv
    - Dv
    - Tv
    - qv
    - sv
    - Sv
    - Ov
    - Nv
    - Tg
    - Ut
    - Dt
    - Tt
    - qt
    - Qt
    - st
    - St
    - Ot
    - Nt
  desiredCityLevel: 0
  currentCityLevel: 0
  currentCityGO: {fileID: 0}
  levelCityGO:
  - {fileID: 1012846401371066842, guid: 726d318af5aee1c46af76af2be2a7ec2, type: 3}
  desiredHospitalLevel: 0
  currentHospitalLevel: 0
  currentHospitalGO: {fileID: 0}
  levelHospitalGO:
  - {fileID: 2069747981554183531, guid: 633b9641d12281b4a97e8091dc3ea691, type: 3}
  - {fileID: 2434900395655209605, guid: 59613e79342bf0443b44daa4424340d7, type: 3}
  desiredParkingLevel: 0
  currentParkingLevel: 0
  currentParkingGO: {fileID: 0}
  levelParkingGO:
  - {fileID: 1802672265020283546, guid: 1a86de916898cfb45826164aa644d33a, type: 3}
  - {fileID: 5343529278045123921, guid: b545020729a575e4d82ea0afe61ac7f0, type: 3}
  receptionSpawnPoint: {fileID: 0}
  receptionRoom: {fileID: 4515549984140375574, guid: 207bfbee9708f214e806b23e8fd80876,
    type: 3}
  buildRooms: 0
  hospitalRoomsSpawnPoints:
  - {fileID: 0}
  - {fileID: 0}
  hospitalRoomsPrefabs:
  - {fileID: 1995880475175086355, guid: 8428a1bb556c14b4eaada636f6524b83, type: 3}
  - {fileID: 1995880475175086355, guid: f1ef51ce7e31bf244aa4d05353febc8b, type: 3}
  allRoomsNames:
  - FARMACIA
  - "CAFETER\xCDA"
  - CUIDADOS INTENSIVOS
  - "UROLOG\xCDA"
  - "OFTALMOLOG\xCDA"
  - "RADIODIAGN\xD3STICO"
  - "NEUMOLOG\xCDA"
  - "CIRUG\xCDA"
  - "REHABILITACI\xD3N"
  - "HEMATOLOG\xCDA"
  - "CARDIOLOG\xCDA"
  - "NEFROLOG\xCDA"
  - "ONCOLOG\xCDA"
  allRoomsCosts:
  - shortValue: 
    moneyAmount: 0
    periods: []
  - shortValue: 15k
    moneyAmount: 15000
    periods: []
  - shortValue: 3.5M
    moneyAmount: 3500000
    periods: []
  - shortValue: 2B
    moneyAmount: 2000000000
    periods: []
  - shortValue: 3T
    moneyAmount: 3000000000000
    periods: []
  - shortValue: 2q
    moneyAmount: 2000000000000000
    periods: []
  - shortValue: 4Q
    moneyAmount: 4e+18
    periods: []
  - shortValue: 3S
    moneyAmount: 3e+24
    periods: []
  - shortValue: 12N
    moneyAmount: 1.2e+31
    periods: []
  - shortValue: 450d
    moneyAmount: 4.5e+35
    periods: []
  - shortValue: 2Qd
    moneyAmount: 2e+48
    periods: []
  - shortValue: 5Od
    moneyAmount: 5e+57
    periods: []
  - shortValue: 2Uv
    moneyAmount: 2e+66
    periods: []
